{
  "license": "cc-by",
  "specStatus": "base",
  "otherLinks": [
    {
      "key": "Senaste version",
      "data": [
        {
          "value": "https://gitlab.com/sarskilt-viktiga-datamangder/evenemang",
          "href": "https://gitlab.com/sarskilt-viktiga-datamangder/evenemang"
        }
      ]
    },
    {
      "key": "Denna version",
      "data": [
        {
          "value": "https://gitlab.com/sarskilt-viktiga-datamangder/evenemang",
          "href": "https://gitlab.com/sarskilt-viktiga-datamangder/evenemang"
        }
      ]
    },
    {
      "key": "Källkod till specifikation",
      "data": [
        {
          "value": "https://gitlab.com/sarskilt-viktiga-datamangder/evenemang",
          "href": "https://gitlab.com/sarskilt-viktiga-datamangder/evenemang"
        }
      ]
    },
    {
      "key": "Ändringslogg",
      "data": [
        {
          "value": "https://gitlab.com/sarskilt-viktiga-datamangder/evenemang/CHANGELOG.md",
          "href": "https://gitlab.com/sarskilt-viktiga-datamangder/evenemang/CHANGELOG.md"
        }
      ]
    }
  ],
  "title": "Specifikation för evenemang",
  "subtitle": "Information om evenemang",
  "lint": false,
  "publishDate": "2023-05-30",
  "logos": [
    {
      "src": "assets/nationell-dataverkstad.jpg",
      "alt": "Logga för Västra Götalandsregionen",
      "url": "https://www.vgregion.se/ov/dataverkstad/",
      "width": 235
    }
  ],
  "editors": [
    {
      "name": "Alex Akkila Forsberg",
      "url": "mailto:alex@metasolutions.se",
      "company": "Metasolutions AB",
      "companyURL": "https://entryscape.com/"
    }
  ],
  "shortName": "evenemang",
  "format": "markdown"
}
